[
    {
        "id": "1",
        "name": "Pulidora Pro",
        "price": 8899,
        "description": "- Modelo FX1-1080<br>- Potencia 1200w<br>- Velocidad 1000-3000 rpm<br>- Diámetro de disco 7” (180mm)<br>- Respaldo de goma<br>- Velocidad variable<br>- Mango superior y mango lateral<br>- Botón de bloqueo de eje<br>- Incluye disco plástico y bonete de lana<br>- Se le puede poner cualquier pad con rosca M14<br>- Uso profesional",
        "imagePath": "./assets/pulidora-pro.png",
        "onSale": true,
        "salePrice": 5899,
        "tags": [
            "pulidora pro",
            "maquina"
        ],
        "stock": 25
    },
    {
        "id": "2",
        "name": "Paños microfibra 60x40",
        "price": 350,
        "description": "La microfibra mas elegida al mejor costo del mercado:<br> - Pelo corto<br> - Doble cara<br> - Medida grande (60x40 cm)<br> - Ideal para secado",
        "imagePath": "./assets/paños-microfibra-60x40.png",
        "onSale": true,
        "salePrice": 270,
        "tags": [
            "paños microfibra 60x40",
            "accesorio"
        ],
        "stock": 64
    },
    {
        "id": "3",
        "name": "Hidrolavadora Big",
        "price": 72990,
        "description": "Modelo: 841012<br>Características:<br>• Tension: 220 v/50 Hz<br>• Potencia: 1580 W<br>• Bomba lineal<br>• Pistones Ceramicos<br>• Presion nominal 70 Bar (MPa)<br>• Presion maxima 145 Bar (MPa)<br>• Caudal 8 l/min<br>• Longitud manguera 8 m<br>• Longitud cable 2.7 m<br>• Temperatura max. entrada de agua 60°C<br>• Peso 14 Kg<br>• Uso Semiprofesional<br>• Incluye lanza-rociador de detergente",
        "imagePath": "./assets/hidrolavadora-big.png",
        "onSale": true,
        "salePrice": 64490,
        "tags": [
            "hidrolavadora big",
            "maquina"
        ],
        "stock": 5
    },
    {
        "id": "4",
        "name": "Pulidor 100cc",
        "price": 5500,
        "description": "Menzerna 400, el producto con mayor balance en poder de corte y brillo final que existe en el mercado actualmente, corte rápido que permite mayor productividad, con capacidad de eliminar rayas de lijado grado P-1200 así como marcas profundas, rayas provocadas por lavado, polvo e inclusive alta contaminación.",
        "imagePath": "./assets/pulidor-100cc.png",
        "onSale": true,
        "salePrice": 5000,
        "tags": [
            "pulidor 100cc",
            "liquido"
        ],
        "stock": 100
    },
    {
        "id": "5",
        "name": "Silicona 300cc",
        "price": 349.99,
        "description": "Otorga brillo intenso<br> - Renueva y protege vinílicos, plásticos y cueros<br> dejando un aroma inigualable en el interior del automóvil.<br> - Es especial para neumáticos y plásticos por su formula en gel<br> - Contenido: 300cc<br> - Permite mayor rendimiento evitando posibles<br> derrames de producto al momento de la aplicación",
        "imagePath": "./assets/silicona-300cc.jpg",
        "onSale": false,
        "salePrice": -1,
        "tags": [
            "silicona 300cc",
            "liquido"
        ],
        "stock": 86
    },
    {
        "id": "6",
        "name": "Cera 500cc",
        "price": 899,
        "description": "Shampoo altamente concentrado con cera líquida, su espuma densa y firme desprende y encapsula la suciedad, permitiendo una limpieza sin generar rayas. Su formula con PH neutro, está especialmente diseñada para no quitar capas de cera, ya que a la vez añade una nueva, dejando su vehículo lavado, limpio, y encerado, lavado tras lavado. Puede ser aplicado en foam lance.",
        "imagePath": "./assets/cera-500cc.png",
        "onSale": false,
        "salePrice": -1,
        "tags": [
            "cera 500cc",
            "liquido"
        ],
        "stock": 51
    },
    {
        "id": "7",
        "name": "Hidrolavadora Medium",
        "price": 34700,
        "description": "Características:<br>Color: Blanco/azul<br>Con ruedas: Si<br>Condición del ítem: Nuevo<br>EAN: 4054278490373<br>Línea: Hogareña<br>Marca: Schulz<br>Modelo: K5<br>MPN: 1.181-332.0<br>Potencia: 210w<br>Presión máxima: 145 bar<br>Tiempo de garantía: 12 meses<br>Tipo de garantía: Garantía de fábrica<br>Voltaje : 220v",
        "imagePath": "./assets/hidrolavadora-medium.jpg",
        "onSale": false,
        "salePrice": -1,
        "tags": [
            "hidrolavadora medium",
            "maquina"
        ],
        "stock": 15
    },
    {
        "id": "8",
        "name": "Pulidora Hogar",
        "price": 4399,
        "description": "• Marca: Gladiator<br>• Modelo: LC 324<br>• Tipo: Pulidora orbital<br>• Voltaje/Frecuencia: 220v ~ 50-60Hz<br>• Potencia: 120W<br>• Velocidad en vacío: 3000 rpm<br>• Tipo de aislación: II<br>• Peso: 3 kg<br>• Garantía: 12 meses",
        "imagePath": "./assets/pulidora-hogar.jpg",
        "onSale": false,
        "salePrice": -1,
        "tags": [
            "pulidora hogar",
            "maquina"
        ],
        "stock": 24
    },
    {
        "id": "9",
        "name": "Hidrolavadora Small",
        "price": 9299,
        "description": "• Bomba de 3 pistones de acero inoxidable y válvula de seguridad automática.<br>• Dispositivo de conexión rápida con filtro contra impurezas.<br>• Compartimento para accesorios y fácil almacenamiento del cable y manguera.<br>• Diseño compacto y fácil de mover.<br>• Interruptor rotativo de encendido / apagado fácil de usar.",
        "imagePath": "./assets/hidrolavadora-small.jpg",
        "onSale": false,
        "salePrice": -1,
        "tags": [
            "hidrolavadora small",
            "maquina"
        ],
        "stock": 19
    },
    {
        "id": "10",
        "name": "Paños microfibra 40x40",
        "price": 210,
        "description": "Características:<br>• Paño de microfibra<br>• Para secado, absorbe tres veces más que las tradicionales.<br>• Reduce el tiempo de secado sin rayar<br>• Absorbe más agua y no necesita escurrirse tanto como las convencionales.<br>• Ideal para aplicar ceras y productos.",
        "imagePath": "./assets/paños-microfibra-40x40.png",
        "onSale": false,
        "salePrice": -1,
        "tags": [
            "paños microfibra 40x40",
            "accesorio"
        ],
        "stock": 150
    },
    {
        "id": "11",
        "name": "Shampoo 1lt",
        "price": 1755,
        "description": "Fuerza limpiadora concentrada para el lavado manual de vehículos. Rápido y efectivo contra la suciedad típica de la carretera sin atacar las superficies. Como pintura vidrios, metal, plástico y goma, baldosas, porcelana y esmalte. Libre de fosfatos.",
        "imagePath": "./assets/shampoo-1lt.jpg",
        "onSale": false,
        "salePrice": -1,
        "tags": [
            "shampoo 1lt",
            "liquido"
        ],
        "stock": 58
    },
    {
        "id": "12",
        "name": "Esponja sintética",
        "price": 300,
        "description": "Esponja sintética para lavado automotor.<br>No raya y es ideal para encerar y pulir pintura automotriz.",
        "imagePath": "./assets/esponja-sintetica.jpg",
        "onSale": false,
        "salePrice": -1,
        "tags": [
            "esponja sintetica",
            "esponja sintética",
            "accesorio"
        ],
        "stock": 168
    },
    {
        "id": "13",
        "name": "Cera 1lt",
        "price": 1360,
        "description": "Nueva fórmula diseñada para encerar tu vehículo de manera ultra rápida. Funciona en todo tipo de vehículos y especialmente en aquellos con tratamiento acrílico o cerámico.<br>Otorga efecto mojado, terminación profunda y cálida que solo la carnauba puede dar.<br>Tu vehículo no solo quedara brillante, si no que protegido también!",
        "imagePath": "./assets/cera-1lt.png",
        "onSale": false,
        "salePrice": -1,
        "tags": [
            "cera 1lt",
            "liquido"
        ],
        "stock": 72
    },
    {
        "id": "14",
        "name": "Paños microfibra 50x40",
        "price": 280,
        "description": "Seca, limpia, cuida y hace brillar en una sola pasada.<br>Excelente calidad.<br>No raya ni deja pelusa.",
        "imagePath": "./assets/paños-microfibra-50x40.jpg",
        "onSale": false,
        "salePrice": -1,
        "tags": [
            "paños microfibra 50x40",
            "accesorio"
        ],
        "stock": 62
    },
    {
        "id": "15",
        "name": "Shampoo 500cc",
        "price": 139.99,
        "description": "- Precio por unidad<br>- Mayor brillo y protección<br>- Máximo rendimiento<br>- Contenido: 500cm3<br>- Contiene una fórmula que otorga mayor limpieza sin dañar la pintura de su automovil<br>- Precaución: No aplicar al sol<br>- Modo de uso: Vierta 30 ml de producto (3 tapitas) en 10 litros de agua",
        "imagePath": "./assets/shampoo-500cc.png",
        "onSale": false,
        "salePrice": -1,
        "tags": [
            "shampoo 500cc",
            "liquido"
        ],
        "stock": 49
    },
    {
        "id": "16",
        "name": "Aromatizante",
        "price": 110,
        "description": "Perfumes ambientales,  para su hogar y todo tipo de vehículos<br>Fragancias: Kenzo, Carolina Herrera, Polo, Paco Rabanne, Vainilla, Tropical, Jazz, Lavanda, Limón, Coco, Pino, Black, Uva, Frutilla.",
        "imagePath": "./assets/pinitos.png",
        "onSale": false,
        "salePrice": -1,
        "tags": [
            "aromatizante",
            "pinito",
            "accesorio"
        ],
        "stock": 0
    },
    {
        "id": "17",
        "name": "Esponja de microfibra",
        "price": 485,
        "description": "Sus largos bastones se cargan muy bien de agua y espuma para lubricar la superficie mientras deslizas las esponja al lavar. En su parte posterior, contiene una banda elástica para sujetar con tu mano firmemente y evitar que se te caiga al suelo. El tejido posterior es ideal para remover restos de insecto o suciedad más pesada.",
        "imagePath": "./assets/esponja-microfibra.png",
        "onSale": false,
        "salePrice": -1,
        "tags": [
            "esponja microfibra",
            "accesorio"
        ],
        "stock": 0
    },
    {
        "id": "18",
        "name": "Aspiradora inalámbrica",
        "price": 6227,
        "description": "Esta versátil aspiradora de líquidos y sólidos alegrará tu día al limpiar rápidamente hasta 6 onzas de desorden líquido, polvo y sucieda seca. Ligera, pero con potencia de litio, su boquilla ancha aspira partículas grandes de suciedad, y el accesorio para absorber líquidos proporciona una limpieza libre de marcas. Simplemente enjuague el recipiente translúcido color aguamarina y el filtro lavable y estará listo para la próxima tarea.",
        "imagePath": "./assets/aspiradora.jpg",
        "onSale": false,
        "salePrice": -1,
        "tags": [
            "aspiradora inalámbrica",
            "aspiradora inalambrica",
            "accesorio"
        ],
        "stock": 0
    },
    {
        "id": "19",
        "name": "Cepillo para llantas",
        "price": 1570,
        "description": "Sabemos que la limpieza de llantas es todo un tema. Algunas son fáciles, otras complicadas, es una tarea sucia y que no siempre nos permite lograr buenos resultados. Sobre todo en el interior de las mismas donde no se llega de manera sencilla.",
        "imagePath": "./assets/cepillo.jpg",
        "onSale": false,
        "salePrice": -1,
        "tags": [
            "cepillo para llantas",
            "accesorio"
        ],
        "stock": 0
    }
]